{
  "IcoMoonType": "selection",
  "icons": [
    {
      "icon": {
        "paths": [
          "M1003.956 748.909l-379.353-613.035c-24.296-39.312-66.392-62.778-112.604-62.778s-88.306 23.468-112.604 62.778l0.012-0.018-379.373 613.071c-25.6 41.416-26.728 91.532-3.020 134.060s66.932 67.916 115.622 67.916h758.729c48.69 0 91.912-25.388 115.62-67.916 23.71-42.528 22.582-92.644-3.030-134.078zM937.128 844.040c-9.386 16.832-26.492 26.88-45.764 26.88h-758.727c-19.272 0-36.38-10.048-45.764-26.88s-8.938-36.67 1.184-53.042l379.377-613.069c9.76-15.792 26.004-24.848 44.568-24.848s34.808 9.056 44.58 24.864l379.351 613.035c10.134 16.39 10.582 36.228 1.196 53.060z",
          "M472.011 720.955h79.982v79.982h-79.982v-79.982z",
          "M472.011 327.041h79.982v313.931h-79.982v-313.931z"
        ],
        "attrs": [
          {},
          {},
          {}
        ],
        "isMulticolor": false,
        "isMulticolor2": false,
        "grid": 16,
        "tags": [
          "warning"
        ]
      },
      "attrs": [
        {},
        {},
        {}
      ],
      "properties": {
        "order": 750,
        "id": 46,
        "name": "warning",
        "prevSize": 32,
        "code": 59692
      },
      "setIdx": 0,
      "setId": 1,
      "iconIdx": 0
    },
    {
      "icon": {
        "paths": [
          "M747.52 310.272v-223.744c0-36.352-29.696-66.048-65.536-66.048h-616.448c-36.352 0-65.536 29.696-65.536 66.048v865.792c0 36.864 29.184 66.048 65.536 66.048h616.448c35.84 0 65.024-29.184 65.024-66.048v-36.352c-7.168 0-14.336-0.512-20.992-0.512v36.864c0 25.088-19.968 44.544-44.032 44.544h-616.448c-24.576 0-44.032-19.456-44.032-44.544v-865.792c0-24.576 19.456-44.544 44.032-44.544h386.048v170.496c0 4.608 2.56 8.192 6.144 10.24 1.536 0.512 2.56 0.512 4.608 0.512 2.56 0 5.12-1.024 7.168-2.56l54.272-52.224 6.656-6.144 6.656 6.144 52.224 51.712c2.048 2.048 4.608 3.072 7.68 3.072 1.536 0 2.56-0.512 4.096-0.512 3.584-1.536 6.656-5.632 6.656-10.24v-170.496h74.24c24.064 0 44.032 19.968 44.032 44.544v224.256c7.168 0 14.336-0.512 21.504-0.512zM586.752 186.88l-48.64-47.104c-2.048-2.048-4.608-3.072-7.168-3.072s-5.632 1.024-7.68 2.56l-34.304 33.28-16.384 15.36v-145.92h114.176v144.896z",
          "M79.872 304.128c-5.632 0-10.752 4.608-10.752 11.264v621.568c0 5.632 4.608 10.752 10.752 10.752s10.24-4.608 10.24-10.752v-621.568c0-6.144-4.608-11.264-10.24-11.264z",
          "M79.872 248.32c-6.144 0-11.264 5.12-11.264 11.264v20.992c0 6.144 5.12 11.264 11.264 11.264s11.264-5.12 11.264-11.264v-20.992c0-6.144-5.12-11.264-11.264-11.264z",
          "M519.168 289.28h-264.704c-32.256 0-57.856 26.112-57.856 58.368v64c0 32.256 26.112 58.88 57.856 58.88h226.304c4.096-8.192 8.704-15.36 13.824-23.040h-240.128c-19.456 0-35.328-15.872-35.328-35.84v-64c0-19.456 16.384-35.328 35.328-35.328h264.704c19.456 0 35.328 15.872 35.328 35.328v32.256c0 0 14.848-11.264 22.528-16.384v-15.36c-0-32.768-26.112-58.88-57.856-58.88z",
          "M492.544 369.152h-218.624c-6.144 0-11.264 4.608-11.264 10.752 0 5.632 5.12 10.752 11.264 10.752h218.624c6.656 0 11.264-4.608 11.264-10.752 0-6.656-4.608-10.752-11.264-10.752z",
          "M747.52 890.368c-152.576 0-276.48-124.416-276.48-276.992s123.904-276.992 276.48-276.992 276.48 124.416 276.48 276.992-123.904 276.992-276.48 276.992zM747.52 353.28c-142.848 0-259.584 116.736-259.584 259.584s116.224 259.584 259.584 259.584 259.584-116.736 259.584-259.584-116.736-259.584-259.584-259.584z",
          "M655.872 548.864c-7.168 0-13.824-1.536-19.456-5.12l-50.176-29.696c-15.872-9.216-27.648-31.744-18.944-52.224 7.168-17.408 22.528-40.448 53.76-52.736 17.408-6.656 40.448 2.048 51.712 18.432l31.232 47.616c10.752 16.384 7.68 38.912-8.192 52.736-2.56 2.048-5.12 4.608-7.168 6.656-9.216 8.704-20.992 14.336-32.768 14.336zM632.832 424.448c-2.56 0-4.608 0.512-6.656 1.024-25.088 9.728-37.888 28.672-43.52 43.008-4.608 11.264 2.56 25.088 11.776 30.72l50.176 29.696c8.704 5.12 22.528 2.56 30.72-5.632 2.56-3.072 5.632-5.632 8.704-7.68 9.216-7.68 11.264-20.48 5.12-30.208l-31.232-47.616c-5.632-8.192-15.872-13.312-25.088-13.312z",
          "M747.52 696.832c-46.080 0-83.456-37.376-83.456-83.456s37.376-83.456 83.456-83.456c46.080 0 83.456 37.376 83.456 83.456s-37.376 83.456-83.456 83.456zM747.52 546.816c-36.352 0-66.048 29.696-66.048 66.048s29.696 66.048 66.048 66.048c36.352 0 66.048-29.696 66.048-66.048s-29.696-66.048-66.048-66.048z",
          "M747.52 656.384c-23.552 0-43.008-19.456-43.008-43.008s19.456-43.008 43.008-43.008c23.552 0 43.008 19.456 43.008 43.008s-19.456 43.008-43.008 43.008zM747.52 587.776c-14.336 0-25.6 11.264-25.6 25.6s11.264 25.6 25.6 25.6c14.336 0 25.6-11.264 25.6-25.6s-11.776-25.6-25.6-25.6z"
        ],
        "attrs": [
          {},
          {},
          {},
          {},
          {},
          {},
          {},
          {},
          {}
        ],
        "isMulticolor": false,
        "isMulticolor2": false,
        "tags": [
          "bd-ico"
        ],
        "grid": 16
      },
      "attrs": [
        {},
        {},
        {},
        {},
        {},
        {},
        {},
        {},
        {}
      ],
      "properties": {
        "order": 751,
        "id": 0,
        "name": "bd-ico",
        "prevSize": 32,
        "code": 59689
      },
      "setIdx": 0,
      "setId": 1,
      "iconIdx": 1
    },
    {
      "icon": {
        "paths": [
          "M751.512 874.158h-713.54c-10.088 0-18.282 8.102-18.282 18.168 0 10.090 8.194 18.282 18.282 18.282h713.54c8.924 61.88 62.152 109.584 126.452 109.584 70.416 0 127.752-57.336 127.752-127.866 0-70.438-57.336-127.752-127.752-127.752-64.298 0-117.526 47.704-126.452 109.584v0zM969.266 892.326c0 50.376-41.016 91.302-91.3 91.302-50.376 0-91.302-40.926-91.302-91.302 0-50.284 40.926-91.302 91.302-91.302 50.282 0.002 91.3 41.018 91.3 91.302v0zM969.266 892.326z",
          "M379.37 490.67h-341.398c-10.088 0-18.282 8.194-18.282 18.282 0 10.066 8.194 18.168 18.282 18.168h340.234c7.212 65.806 63.044 117.162 130.72 117.162 67.654 0 123.576-51.356 130.79-117.162h347.72c10.18 0 18.282-8.104 18.282-18.168 0-10.088-8.102-18.282-18.282-18.282h-348.886c-10.522-62.154-64.55-109.584-129.624-109.584-65.006 0-119.034 47.432-129.556 109.584v0zM604.062 512.698c0 52.406-42.73 95.044-95.136 95.044-52.43 0-95.044-42.638-95.044-95.044 0-52.43 42.614-95.046 95.044-95.046 52.406 0 95.136 42.614 95.136 95.046v0zM604.062 512.698z",
          "M147.556-2.4c-70.53 0-127.866 57.336-127.866 127.866 0 70.438 57.336 127.752 127.866 127.752 64.184 0 117.414-47.682 126.338-109.47h713.54c10.18 0 18.282-8.216 18.282-18.282 0-10.088-8.102-18.282-18.282-18.282h-713.54c-8.924-61.88-62.154-109.584-126.338-109.584v0zM238.856 125.466c0 50.284-41.016 91.302-91.302 91.302-50.374 0-91.3-41.018-91.3-91.302 0-50.376 40.926-91.302 91.3-91.302 50.286 0 91.302 40.926 91.302 91.302v0zM238.856 125.466z"
        ],
        "attrs": [
          {},
          {},
          {}
        ],
        "isMulticolor": false,
        "isMulticolor2": false,
        "tags": [
          "filter"
        ],
        "grid": 16
      },
      "attrs": [
        {},
        {},
        {}
      ],
      "properties": {
        "order": 752,
        "id": 1,
        "name": "filter",
        "prevSize": 32,
        "code": 59690
      },
      "setIdx": 0,
      "setId": 1,
      "iconIdx": 2
    },
    {
      "icon": {
        "paths": [
          "M903.82 448.66l-27.8-16.788v-200.95c0-32.62-26.72-59.32-59.32-59.32h-371.648l-262.212-158.362c-14.54-8.78-28.92-13.24-42.74-13.24-29.34 0-58.94 21.84-58.94 70.62v882.98c0 48.62 29.42 70.4 58.58 70.4 6.94 0 14.040-1.14 21.22-3.38 7.16-2.26 14.44-5.62 21.74-10.080l721.46-441.24c24.64-15.080 38.76-37.12 38.68-60.44-0.060-23.32-14.28-45.26-39.020-60.2zM698.060 455.682c0.26-1.56 0.26-3.18 0-4.74v-54.58c0.26-1.58 0.26-3.18 0-4.74v-54.58c0.26-1.58 0.26-3.18 0-4.74v-54.58c0.26-1.58 0.26-3.18 0-4.74v-71.72h59.32v283.74l-21.44-14.32c-4.98-3.32-11.46-3.32-16.44 0l-21.44 14.32v-29.32zM364.252 171.602h-22.112c-11.52 0-22.3 3.34-31.44 9.1-0.008 0.004-0.014 0.010-0.022 0.014l-88.738-95.056 142.312 85.942zM129.34 977.52c-5.58-6.44-6.4-17.94-6.4-23.92v-882.98c0-7.080 1-17.26 5.88-23.44l156.312 167.452c-1.514 5.172-2.312 10.64-2.312 16.29v580.716l-0.020 0.022-153.46 165.86zM225.020 935.66l57.8-62.462v10.244c0 5.38 0.72 10.62 2.1 15.58 0 0.002 0 0.004 0.002 0.004l-0.020 0.012-59.882 36.622zM312.48 882.168v-651.246c0-8.906 3.694-16.754 9.67-22.136 2.716-2.442 5.904-4.374 9.43-5.666l-0.006-0.006c0.008-0.004 0.018-0.008 0.026-0.010 3.26-1.2 6.8-1.84 10.54-1.84h59.32v626.486l-0.020 0.012-88.96 54.406zM728.16 627.94l-0.040-0.040-57.62 36.1-0.78-0.32-238.6 145.928v-608.328l237.28-0.018v59.32h-133.48c-5.16 0-9.7 2.64-12.34 6.62-1.56 2.34-2.48 5.16-2.48 8.2v59.32c0 8.2 6.64 14.84 14.82 14.84h133.48v29.66h-103.82c-8.18 0-14.82 6.64-14.82 14.82v59.32c0 8.2 6.64 14.84 14.82 14.84h103.82v44.48c0 8.2 6.64 14.84 14.84 14.84 2.92 0 5.78-0.88 8.22-2.5l36.26-24.16 36.26 24.16c6.82 4.54 16.020 2.7 20.58-4.12 1.62-2.42 2.48-5.28 2.48-8.22v-311.42h29.66c16.68 0 29.66 12.96 29.66 29.66v183.030l-0.020-0.012v48.84l0.020 0.012v92.856l-0.020 0.012-118.18 72.28zM668.4 290.242v29.66h-118.64v-29.66h118.64zM668.4 408.882v29.66h-88.98v-29.66h88.98zM882.34 533.64l-6.32 3.868v-56.796l6.18 3.728c11.96 7.22 18.82 16.16 18.86 24.54 0.020 8.38-6.8 17.38-18.72 24.66z",
          "M187.312 354.304c-11.542 0-20.898 9.356-20.898 20.898v9.152c0 11.542 9.356 20.898 20.898 20.898s20.898-9.356 20.898-20.898v-9.152c0-11.542-9.356-20.898-20.898-20.898z",
          "M187.312 429.58c-11.542 0-20.898 9.356-20.898 20.898v198.532c0 11.542 9.356 20.898 20.898 20.898s20.898-9.356 20.898-20.898v-198.532c0-11.542-9.356-20.898-20.898-20.898z"
        ],
        "attrs": [
          {},
          {},
          {}
        ],
        "isMulticolor": false,
        "isMulticolor2": false,
        "tags": [
          "googleb"
        ],
        "grid": 16
      },
      "attrs": [
        {},
        {},
        {}
      ],
      "properties": {
        "order": 753,
        "id": 2,
        "name": "googleb",
        "prevSize": 32,
        "code": 59691
      },
      "setIdx": 0,
      "setId": 1,
      "iconIdx": 3
    },
    {
      "icon": {
        "paths": [
          "M516.973 373.514c-230.315 0-306.343 159.732-309.47 166.536l-3.769 8.205 4.135 8.014c3.787 7.344 95.129 179.731 309.104 179.731 214.435 0 298.321-172.963 301.787-180.326l3.466-7.381-3.090-7.537c-2.806-6.84-71.316-167.242-302.163-167.242zM516.973 698.949c-167.992 0-251.587-118.628-271.53-151.508 14.891-25.866 69.501-104.664 192.777-129.374-42.287 24.225-70.711 68.127-70.711 118.334 0 76.231 65.338 138.259 145.658 138.259 80.31 0 145.658-62.028 145.658-138.259 0-51.529-29.918-96.485-74.058-120.269 130.099 22.28 183.012 105.379 196.5 131.179-17.881 31.413-97.237 151.636-264.295 151.636z",
          "M513.168 346.036c15.605 0 27.829-14.78 27.829-33.642v-90.663c0-18.87-12.222-33.649-27.829-33.649-8.243 0-15.981 4.254-21.208 11.663-4.282 6.061-6.629 13.874-6.629 21.978v90.663c0 18.87 12.231 33.649 27.836 33.649z",
          "M966.838 427.585c-4.712-7.629-13.128-11.993-23.106-11.993-6.868 0-13.827 2.053-20.126 5.941l-77.211 47.532c-6.914 4.254-12.333 10.352-15.239 17.164-3.576 8.344-3.136 17.164 1.173 24.16 4.695 7.647 13.121 12.030 23.115 12.030 6.859 0 13.818-2.063 20.126-5.941l77.202-47.532c16.083-9.892 22.254-28.057 14.065-41.362z",
          "M177.604 469.076l-77.193-47.523c-6.308-3.906-13.277-5.96-20.144-5.96-9.976 0-18.393 4.364-23.106 12.002-8.188 13.286-2.007 31.449 14.047 41.352l77.211 47.532c6.308 3.888 13.277 5.932 20.126 5.932 0 0 0 0 0 0 9.985 0 18.41-4.374 23.106-12.002 4.32-7.025 4.749-15.844 1.183-24.179-2.897-6.803-8.318-12.901-15.23-17.155z",
          "M281.826 376.945c6.739 10.719 17.624 17.383 28.406 17.383 0 0 0 0 0 0 4.685 0 9.206-1.284 13.056-3.704 13.213-8.298 15.705-27.305 5.675-43.296l-48.22-76.782c-6.739-10.709-17.624-17.367-28.396-17.367-4.685 0-9.197 1.274-13.075 3.704-13.204 8.307-15.689 27.324-5.657 43.287l48.211 76.772z",
          "M710.008 390.644c3.86 2.411 8.371 3.695 13.056 3.695 10.801 0 21.684-6.666 28.424-17.383l48.229-76.782c10.013-15.963 7.509-34.961-5.703-43.296-3.869-2.42-8.38-3.695-13.056-3.695-10.782 0-21.666 6.666-28.406 17.383l-48.211 76.772c-10.031 15.963-7.546 34.979 5.666 43.305z"
        ],
        "attrs": [
          {},
          {},
          {},
          {},
          {},
          {}
        ],
        "isMulticolor": false,
        "isMulticolor2": false,
        "colorPermutations": {
          "12552552551": [
            {},
            {},
            {},
            {},
            {},
            {}
          ]
        },
        "tags": [
          "eye"
        ],
        "grid": 16
      },
      "attrs": [
        {},
        {},
        {},
        {},
        {},
        {}
      ],
      "properties": {
        "order": 754,
        "id": 3,
        "name": "eye",
        "prevSize": 32,
        "code": 59687
      },
      "setIdx": 0,
      "setId": 1,
      "iconIdx": 4
    },
    {
      "icon": {
        "paths": [
          "M515.938 378.553c-227.114 0-302.085 157.512-305.168 164.222l-3.717 8.092 4.078 7.902c3.734 7.241 93.805 177.231 304.807 177.231 211.456 0 294.175-170.559 297.592-177.819l3.417-7.279-3.047-7.431c-2.767-6.744-70.325-164.917-297.964-164.917zM515.938 699.463c-165.657 0-248.089-116.978-267.754-149.402 14.684-25.505 68.534-103.21 190.098-127.576-41.7 23.888-69.727 67.179-69.727 116.689 0 75.172 64.43 136.335 143.634 136.335 79.194 0 143.634-61.165 143.634-136.335 0-50.813-29.503-95.145-73.028-118.597 128.29 21.97 180.469 103.914 193.768 129.357-17.63 30.977-95.885 149.527-260.622 149.527z"
        ],
        "attrs": [
          {}
        ],
        "isMulticolor": false,
        "isMulticolor2": false,
        "colorPermutations": {
          "12552552551": [
            {}
          ]
        },
        "tags": [
          "eye-2"
        ],
        "grid": 16
      },
      "attrs": [
        {}
      ],
      "properties": {
        "order": 755,
        "id": 4,
        "name": "eye-2",
        "prevSize": 32,
        "code": 59688
      },
      "setIdx": 0,
      "setId": 1,
      "iconIdx": 5
    },
    {
      "icon": {
        "paths": [
          "M212 32c-99.72 0-180 80.28-180 180v600c0 99.72 80.28 180 180 180h600c99.72 0 180-80.28 180-180v-600c0-99.72-80.28-180-180-180h-600zM152 152c397.645 0 720 322.355 720 720v0h-120c0-331.371-268.629-600-600-600v0-120zM152 392c265.097 0 480 214.903 480 480v0h-120c0-198.822-161.178-360-360-360v0-120zM272 632c66.274 0 120 53.726 120 120v0c0 66.274-53.726 120-120 120v0c-66.274 0-120-53.726-120-120v0c0-66.274 53.726-120 120-120v0z"
        ],
        "attrs": [],
        "isMulticolor": false,
        "isMulticolor2": false,
        "colorPermutations": {
          "12552552551": []
        },
        "tags": [
          "rss"
        ],
        "grid": 16
      },
      "attrs": [],
      "properties": {
        "order": 756,
        "id": 5,
        "name": "rss",
        "prevSize": 32,
        "code": 59686
      },
      "setIdx": 0,
      "setId": 1,
      "iconIdx": 6
    },
    {
      "icon": {
        "paths": [
          "M36.337 1021.806l-37.508-37.449 467.178-474.405-467.178-474.756 37.508-35.196 504.92 509.952-504.92 511.824z"
        ],
        "width": 556,
        "attrs": [],
        "isMulticolor": false,
        "isMulticolor2": false,
        "colorPermutations": {
          "255165012552552551": [],
          "12552552551": []
        },
        "tags": [
          "angle-long-right"
        ],
        "grid": 16
      },
      "attrs": [],
      "properties": {
        "order": 757,
        "id": 6,
        "name": "angle-long-right",
        "prevSize": 32,
        "code": 59684
      },
      "setIdx": 0,
      "setId": 1,
      "iconIdx": 7
    },
    {
      "icon": {
        "paths": [
          "M519.548 1021.806l37.508-37.449-467.178-474.405 467.178-474.756-37.508-35.196-504.92 509.952 504.92 511.854z"
        ],
        "width": 556,
        "attrs": [],
        "isMulticolor": false,
        "isMulticolor2": false,
        "colorPermutations": {
          "255165012552552551": [],
          "12552552551": []
        },
        "tags": [
          "angle-long-left"
        ],
        "grid": 16
      },
      "attrs": [],
      "properties": {
        "order": 758,
        "id": 7,
        "name": "angle-long-left",
        "prevSize": 32,
        "code": 59685
      },
      "setIdx": 0,
      "setId": 1,
      "iconIdx": 8
    },
    {
      "icon": {
        "paths": [
          "M437.848-0c-240.817 0-437.848 187.851-437.848 417.015 0 229.517 197.032 417.368 437.848 417.368s437.848-187.851 437.848-417.368c0-229.164-197.032-417.015-437.848-417.015zM437.848 758.466c-197.032 0-358.047-153.6-358.047-341.451 0-187.498 161.015-341.098 358.047-341.098s358.4 153.6 358.4 341.098c0 187.851-161.368 341.451-358.4 341.451zM1062.841 1012.701c7.768-7.768 12.006-17.302 12.006-26.836 0-9.181-4.237-18.714-12.006-26.483l-283.895-272.243-55.437 53.319 285.661 272.243c6.003 7.415 15.89 11.299 25.777 11.299s19.774-3.884 27.895-11.299z",
          "M398.517 212.314v172.221h-172.178v62.953h172.178v172.221h62.953v-172.221h172.221v-62.953h-172.221v-172.221h-62.953z"
        ],
        "width": 1075,
        "attrs": [
          {},
          {}
        ],
        "isMulticolor": false,
        "isMulticolor2": false,
        "colorPermutations": {
          "255165012552552551": [
            {},
            {}
          ],
          "12552552551": [
            {},
            {}
          ]
        },
        "tags": [
          "search-plus"
        ],
        "grid": 16
      },
      "attrs": [
        {},
        {}
      ],
      "properties": {
        "order": 759,
        "id": 8,
        "name": "search-plus",
        "prevSize": 32,
        "code": 59683
      },
      "setIdx": 0,
      "setId": 1,
      "iconIdx": 9
    },
    {
      "icon": {
        "paths": [
          "M492.43 0c-0.006-0-0.012-0-0.019-0-271.951 0-492.411 229.228-492.411 511.996 0 0.006 0 0.011 0 0.017l-0-0.001c0.004 282.764 220.463 511.988 492.411 511.988 0.007 0 0.013-0 0.020-0l-0.001 0c271.946-0.004 492.401-229.226 492.406-511.988l0-0c0-0.005 0-0.011 0-0.016 0-282.765-220.457-511.992-492.405-511.996l-0.001-0zM420.285 196.632h144.266v276.709l-14.212 150.842h-115.127l-14.927-150.842v-276.709zM420.285 720.074h144.266v107.294h-144.266v-107.294z"
        ],
        "width": 985,
        "attrs": [
          {}
        ],
        "isMulticolor": false,
        "isMulticolor2": false,
        "colorPermutations": {
          "255165012552552551": [
            {}
          ],
          "12552552551": [
            {}
          ]
        },
        "tags": [
          "exclamation-circle"
        ],
        "grid": 16
      },
      "attrs": [
        {}
      ],
      "properties": {
        "order": 760,
        "id": 9,
        "name": "exclamation-circle",
        "prevSize": 32,
        "code": 59682
      },
      "setIdx": 0,
      "setId": 1,
      "iconIdx": 10
    },
    {
      "icon": {
        "paths": [
          "M853.333 321.664c-23.419 10.672-50.586 18.438-79.076 21.924l-1.351 0.135c28.95-17.548 50.716-44.473 61.284-76.49l0.284-0.993c-25.607 15.452-55.412 27.236-87.16 33.659l-1.8 0.304c-25.627-27.331-61.96-44.358-102.271-44.358-77.361 0-140.075 62.714-140.075 140.075 0 11.361 1.353 22.407 3.906 32.984l-0.195-0.956c-116.678-6.022-219.307-61.466-288.119-145.636l-0.563-0.711c-11.968 20.192-19.040 44.508-19.040 70.475 0 48.388 24.558 91.041 61.89 116.173l0.5 0.317c-23.399-0.753-45.15-7.147-64.144-17.856l0.699 0.362v1.749c0.035 67.533 47.826 123.893 111.431 137.143l0.91 0.159c-11.037 3.104-23.713 4.888-36.805 4.888-9.347 0-18.481-0.909-27.32-2.645l0.893 0.146c18.425 56.083 69.795 96.084 130.676 97.278l0.14 0.002c-47.27 37.373-107.735 59.95-173.473 59.95-11.944 0-23.713-0.745-35.265-2.192l1.378 0.141c60.591 39.49 134.748 62.976 214.391 62.976 0.108 0 0.216-0 0.325-0l-0.017 0c257.621 0 398.507-213.333 398.507-398.379 0-6.101-0.171-12.16-0.427-18.133 27.523-20.056 50.713-44.089 69.246-71.525l0.642-1.008z"
        ],
        "attrs": [],
        "isMulticolor": false,
        "isMulticolor2": false,
        "colorPermutations": {
          "255165012552552551": [],
          "12552552551": []
        },
        "tags": [
          "1"
        ],
        "grid": 16
      },
      "attrs": [],
      "properties": {
        "order": 761,
        "id": 10,
        "name": "twitter",
        "prevSize": 32,
        "code": 59677
      },
      "setIdx": 0,
      "setId": 1,
      "iconIdx": 11
    },
    {
      "icon": {
        "paths": [
          "M387.84 484.864v74.453h123.221c-4.949 32-37.248 93.696-123.179 93.696-74.155 0-134.656-61.44-134.656-137.131 0-75.733 60.501-137.173 134.656-137.173 42.197 0 70.4 18.005 86.571 33.536l58.965-56.789c-37.845-35.456-86.912-56.789-145.579-56.789-0.038-0-0.083-0-0.128-0-119.871 0-217.045 97.175-217.045 217.045 0 0.045 0 0.090 0 0.135l-0-0.007c-0 0.063-0 0.138-0 0.213 0 119.871 97.175 217.045 217.045 217.045 0.045 0 0.090-0 0.135-0l-0.007 0c125.44 0 208.555-88.149 208.555-212.267 0-14.251-1.536-25.131-3.413-35.968h-205.099zM853.333 484.864h-62.080v-62.080h-62.037v62.080h-62.080v62.037h62.080v62.080h62.037v-62.080h62.080z"
        ],
        "attrs": [],
        "isMulticolor": false,
        "isMulticolor2": false,
        "colorPermutations": {
          "255165012552552551": [],
          "12552552551": []
        },
        "tags": [
          "2"
        ],
        "grid": 16
      },
      "attrs": [],
      "properties": {
        "order": 762,
        "id": 11,
        "name": "gplus",
        "prevSize": 32,
        "code": 59678
      },
      "setIdx": 0,
      "setId": 1,
      "iconIdx": 12
    },
    {
      "icon": {
        "paths": [
          "M498.091 278.869c-39.757 0.049-71.973 32.265-72.021 72.017l-0 0.005c0 39.68 32.299 71.979 72.021 71.979 39.742-0.048 71.949-32.24 72.021-71.972l0-0.007c-0.049-39.757-32.265-71.973-72.017-72.021l-0.005-0zM498.091 524.757c-95.993-0.097-173.788-77.877-173.909-173.855l-0-0.012c0.073-96.027 77.886-173.855 173.9-173.952l0.009-0c96.042 0.073 173.879 77.91 173.952 173.945l0 0.007c-0.121 96.005-77.94 173.794-173.945 173.867l-0.007 0zM427.733 666.624c-38.245-8.872-71.984-23.295-102.312-42.599l1.32 0.785c-14.406-9.168-23.826-25.052-23.826-43.136 0-28.145 22.816-50.962 50.962-50.962 10.061 0 19.442 2.916 27.342 7.948l-0.206-0.123c33.23 21.089 73.702 33.609 117.099 33.609s83.869-12.519 118.002-34.144l-0.904 0.535c7.694-4.91 17.075-7.826 27.136-7.826 28.145 0 50.962 22.816 50.962 50.962 0 18.084-9.419 33.968-23.619 43.013l-0.206 0.123c-29.010 18.507-62.747 32.929-98.784 41.377l-2.208 0.436 97.237 97.28c9.209 9.219 14.904 21.95 14.904 36.011 0 28.143-22.814 50.957-50.957 50.957-14.082 0-26.83-5.712-36.053-14.946l-95.488-95.574-95.573 95.573c-9.221 9.221-21.961 14.925-36.032 14.925-28.143 0-50.957-22.814-50.957-50.957 0-14.071 5.704-26.811 14.925-36.032l97.237-97.237z"
        ],
        "attrs": [],
        "isMulticolor": false,
        "isMulticolor2": false,
        "colorPermutations": {
          "255165012552552551": [],
          "12552552551": []
        },
        "tags": [
          "3"
        ],
        "grid": 16
      },
      "attrs": [],
      "properties": {
        "order": 763,
        "id": 12,
        "name": "odnoklassniki",
        "prevSize": 32,
        "code": 59679
      },
      "setIdx": 0,
      "setId": 1,
      "iconIdx": 13
    },
    {
      "icon": {
        "paths": [
          "M572.715 853.333v-311.381h105.131l15.744-121.387h-120.832v-77.44c0-35.157 9.813-59.093 60.459-59.093h64.64v-108.629c-27.127-3.021-58.577-4.744-90.43-4.744-1.328 0-2.656 0.003-3.983 0.009l0.205-0.001c-93.141 0-156.928 56.576-156.928 160.427v89.472h-105.387v121.387h105.387v311.381h125.995z"
        ],
        "attrs": [],
        "isMulticolor": false,
        "isMulticolor2": false,
        "colorPermutations": {
          "255165012552552551": [],
          "12552552551": []
        },
        "tags": [
          "4"
        ],
        "grid": 16
      },
      "attrs": [],
      "properties": {
        "order": 764,
        "id": 13,
        "name": "facebook",
        "prevSize": 32,
        "code": 59680
      },
      "setIdx": 0,
      "setId": 1,
      "iconIdx": 14
    },
    {
      "icon": {
        "paths": [
          "M513.493 724.949s12.288-1.365 18.603-8.277c5.803-6.315 5.632-18.219 5.632-18.219s-0.853-55.637 24.576-63.829c25.088-8.107 57.216 53.76 91.307 77.568 25.813 18.005 45.397 14.080 45.397 14.080l91.179-1.28s47.659-3.029 25.045-41.131c-1.835-3.115-13.141-28.203-67.755-79.787-57.173-53.931-49.493-45.184 19.328-138.496 41.941-56.832 58.709-91.52 53.461-106.368-4.992-14.165-35.84-10.411-35.84-10.411l-102.656 0.64s-7.595-1.067-13.227 2.389c-5.547 3.371-9.045 11.179-9.045 11.179s-16.299 43.947-37.973 81.365c-45.653 78.933-63.957 83.115-71.424 78.165-17.365-11.392-13.013-45.867-13.013-70.315 0-76.501 11.392-108.373-22.229-116.608-11.179-2.773-19.371-4.565-47.915-4.864-36.608-0.384-67.627 0.128-85.163 8.875-11.691 5.803-20.693 18.773-15.189 19.499 6.784 0.939 22.144 4.224 30.293 15.488 10.496 14.549 10.112 47.232 10.112 47.232s6.059 90.027-14.080 101.163c-13.867 7.68-32.853-7.979-73.6-79.573-20.864-36.651-36.651-77.227-36.651-77.227s-2.987-7.509-8.448-11.605c-6.571-4.907-15.787-6.443-15.787-6.443l-97.536 0.64s-14.635 0.427-20.011 6.869c-4.779 5.76-0.384 17.664-0.384 17.664s76.373 181.675 162.859 273.195c79.275 83.925 169.301 78.421 169.301 78.421h40.832z"
        ],
        "width": 1024,
        "attrs": [],
        "isMulticolor": false,
        "isMulticolor2": false,
        "colorPermutations": {
          "255165012552552551": [],
          "12552552551": []
        },
        "tags": [
          "5"
        ],
        "grid": 16
      },
      "attrs": [],
      "properties": {
        "order": 765,
        "id": 14,
        "name": "vkontakte",
        "prevSize": 32,
        "code": 59681
      },
      "setIdx": 0,
      "setId": 1,
      "iconIdx": 15
    },
    {
      "icon": {
        "paths": [
          "M1023.999 405.435l-34.14-15.363-477.86 213.374-477.884-213.374-34.115 15.363 512 228.493 512-228.493z"
        ],
        "attrs": [
          {}
        ],
        "isMulticolor": false,
        "isMulticolor2": false,
        "colorPermutations": {
          "255165012552552551": [
            {}
          ],
          "12552552551": [
            {}
          ]
        },
        "tags": [
          "anlge-long-down"
        ],
        "grid": 16
      },
      "attrs": [
        {}
      ],
      "properties": {
        "order": 766,
        "id": 15,
        "name": "anlge-long-down",
        "prevSize": 32,
        "code": 59675
      },
      "setIdx": 0,
      "setId": 1,
      "iconIdx": 16
    },
    {
      "icon": {
        "paths": [
          "M1023.999 618.565l-34.14 15.363-477.86-213.374-477.884 213.374-34.115-15.363 512-228.493 512 228.493z"
        ],
        "attrs": [
          {}
        ],
        "isMulticolor": false,
        "isMulticolor2": false,
        "colorPermutations": {
          "255165012552552551": [
            {}
          ],
          "12552552551": [
            {}
          ]
        },
        "tags": [
          "anlge-long-up"
        ],
        "grid": 16
      },
      "attrs": [
        {}
      ],
      "properties": {
        "order": 767,
        "id": 16,
        "name": "anlge-long-up",
        "prevSize": 32,
        "code": 59676
      },
      "setIdx": 0,
      "setId": 1,
      "iconIdx": 17
    },
    {
      "icon": {
        "paths": [
          "M699.964 0h-632.654c-36.969 0-67.31 30.483-67.31 67.7v888.601c0 37.217 30.341 67.7 67.31 67.7h632.654c36.969 0 67.097-30.483 67.097-67.7v-888.601c0-37.217-30.128-67.7-67.097-67.7zM485.31 21.976h116.791v148.868l-16.624-16.305-33.070-32.255c-2.162-2.127-4.891-3.19-7.621-3.19-2.942 0-5.494 1.063-7.656 2.836l-35.197 34.027-16.624 15.596v-149.577zM745.369 956.301c0 25.52-20.381 45.724-45.405 45.724h-632.654c-25.024 0-45.405-20.204-45.405-45.724v-888.601c0-25.166 20.381-45.724 45.405-45.724h396.273v175.097c0 4.608 2.729 8.507 6.628 10.279 1.382 0.354 2.765 0.709 4.324 0.709 2.729 0 5.458-1.063 7.443-3.19l55.755-53.167 6.841-6.38 6.876 6.38 53.805 53.167c2.127 2.127 4.891 3.19 7.621 3.19 1.56 0 2.942-0.354 4.324-0.709 3.899-1.772 6.628-5.671 6.628-10.279v-175.097h76.135c25.024 0 45.405 20.558 45.405 45.724v888.601z",
          "M92.759 302.344v638.361c0 6.026-4.891 10.988-10.775 10.988-6.061 0-10.952-4.962-10.952-10.988v-638.361c0-6.026 4.891-10.988 10.952-10.988 5.884 0 10.775 4.962 10.775 10.988z",
          "M93.645 245.278v21.621c0 6.38-5.281 11.697-11.768 11.697-6.451 0-11.732-5.317-11.732-11.697v-21.621c0-6.38 5.281-11.697 11.732-11.697 6.486 0 11.768 5.317 11.768 11.697z",
          "M532.664 275.76h-271.224c-33.070 0-59.689 26.584-59.689 59.902v65.573c0 33.318 26.619 60.256 59.689 60.256h271.224c32.857 0 59.654-26.938 59.654-60.256v-65.573c0-33.318-26.796-59.902-59.654-59.902zM569.243 401.235c0 20.558-16.446 36.863-36.579 36.863h-271.224c-20.168 0-36.614-16.305-36.614-36.863v-65.573c0-20.204 16.446-36.863 36.614-36.863h271.224c20.133 0 36.579 16.659 36.579 36.863v65.573z",
          "M517.388 368.626c0 6.026-5.317 10.988-11.909 10.988h-224.33c-6.38 0-11.697-4.962-11.697-10.988 0-6.38 5.317-10.988 11.697-10.988h224.33c6.593 0 11.909 4.608 11.909 10.988z"
        ],
        "width": 767,
        "attrs": [
          {},
          {},
          {},
          {},
          {}
        ],
        "isMulticolor": false,
        "isMulticolor2": false,
        "colorPermutations": {
          "255165012552552551": [
            {},
            {},
            {},
            {},
            {}
          ],
          "12552552551": [
            {},
            {},
            {},
            {},
            {}
          ]
        },
        "tags": [
          "book"
        ],
        "grid": 16
      },
      "attrs": [
        {},
        {},
        {},
        {},
        {}
      ],
      "properties": {
        "order": 768,
        "id": 17,
        "name": "book",
        "prevSize": 32,
        "code": 59671
      },
      "setIdx": 0,
      "setId": 1,
      "iconIdx": 18
    },
    {
      "icon": {
        "paths": [
          "M511.374 1024c-281.983 0-511.374-229.565-511.374-512s229.391-512 511.374-512c281.948 0 511.339 229.565 511.339 512s-229.391 512-511.339 512zM511.374 28.87c-266.017 0-482.435 216.696-482.435 483.131s216.417 483.131 482.435 483.131c265.983 0 482.4-216.696 482.4-483.131s-216.417-483.131-482.4-483.131z",
          "M354.226 397.913c-11.757 0-22.678-2.783-32.487-8.348l-106.574-62.261c-27.096-15.652-46.852-54.609-33.009-87.652 14.052-33.739 43.339-78.261 102.957-101.217 28.696-10.783 68.835 3.826 87.722 32.348l66.574 100.522c18.157 27.13 12.209 64.696-13.913 87.304h-0.035c-5.704 4.87-11.235 10.087-16.626 15.652-14.296 14.957-34.783 23.652-54.609 23.652zM305.426 163.826c-3.617 0-6.991 0.348-9.983 1.739-50.052 19.13-74.713 57.043-86.609 85.217-7.443 17.739 5.078 42.435 20.87 51.478l106.539 62.261c14.817 8.348 37.913 4.174 51.861-10.435 5.983-6.261 12.139-11.826 18.504-17.391 15.061-12.87 18.783-34.087 8.696-49.391l-66.539-100.522c-9.043-13.565-28.070-22.957-43.339-22.957z",
          "M511.374 654.957c-78.713 0-142.748-64-142.748-142.957s64.035-142.957 142.748-142.957c78.678 0 142.713 64 142.713 142.957s-64.035 142.957-142.713 142.957zM511.374 397.913c-62.748 0-113.774 51.13-113.774 114.087s51.026 114.087 113.774 114.087c62.713 0 113.774-51.13 113.774-114.087s-51.061-114.087-113.774-114.087z",
          "M511.374 577.391c-36 0-65.287-29.217-65.287-65.391s29.287-65.391 65.287-65.391c36 0 65.287 29.217 65.287 65.391s-29.287 65.391-65.287 65.391zM511.374 475.478c-20.035 0-36.348 16.348-36.348 36.522s16.313 36.522 36.348 36.522c20.035 0 36.348-16.348 36.348-36.522s-16.313-36.522-36.348-36.522z"
        ],
        "width": 1023,
        "attrs": [
          {},
          {},
          {},
          {}
        ],
        "isMulticolor": false,
        "isMulticolor2": false,
        "colorPermutations": {
          "255165012552552551": [
            {},
            {},
            {},
            {}
          ],
          "12552552551": [
            {},
            {},
            {},
            {}
          ]
        },
        "tags": [
          "disc"
        ],
        "grid": 16
      },
      "attrs": [
        {},
        {},
        {},
        {}
      ],
      "properties": {
        "order": 769,
        "id": 18,
        "name": "disc",
        "prevSize": 32,
        "code": 59672
      },
      "setIdx": 0,
      "setId": 1,
      "iconIdx": 19
    },
    {
      "icon": {
        "paths": [
          "M1020.639 575.797l-213.366-332.177c-2.602-3.976-6.831-6.145-11.422-6.145h-189.691c-7.627 0-13.627 5.783-13.627 13.735 0 7.229 6 13.374 13.627 13.374h182.065l3 4.699 192.872 300.369h-164.57c-46.772 0-84.906 37.953-84.906 84.58 0 31.808-25.699 57.833-57.399 57.833h-331.779c-31.736 0-57.399-26.025-57.399-57.833 0-46.628-38.133-84.58-84.906-84.58h-164.57l10.012-15.543 185.86-289.525h182.065c7.627 0 13.627-6.145 13.627-13.374 0-7.952-6-13.735-13.627-13.735h-189.691c-4.627 0-8.819 2.169-11.422 6.145l-213.366 332.177c-1.41 2.169-2.024 4.699-2.024 7.591v356.032c0 46.628 37.953 84.58 84.725 84.58h853.213c46.772 0 84.725-37.953 84.725-84.58v-356.032c0-2.892-0.614-5.422-2.024-7.591zM995.337 939.42c0 31.447-25.663 57.471-57.399 57.471h-853.213c-31.736 0-57.435-26.025-57.435-57.471v-342.659h175.848c31.7 0 57.616 26.025 57.616 57.471 0 46.989 37.917 85.303 84.689 85.303h331.779c46.772 0 84.689-38.314 84.689-85.303 0-31.447 25.916-57.471 57.616-57.471h175.811v342.659z",
          "M667.172 440.974c0 3.615-1.41 6.868-4.012 9.759l-142.088 142.052c-2.639 2.892-6.036 3.976-9.832 3.976-3.615 0-7.048-1.084-9.651-3.976l-142.088-142.052c-2.602-2.892-4.012-6.145-4.012-9.759 0-3.976 1.41-7.229 4.012-9.759s6-3.976 9.615-3.976c3.615 0 7.048 1.446 9.651 3.976l118.81 118.918v-536.398c0-7.591 6.217-13.735 13.844-13.735 7.446 0 13.663 6.145 13.663 13.735v536.398l17.061-16.988 101.749-101.93c2.602-2.53 6.036-3.976 9.651-3.976s7.012 1.446 9.615 3.976c2.602 2.53 4.012 5.783 4.012 9.759z"
        ],
        "width": 1023,
        "attrs": [
          {},
          {}
        ],
        "isMulticolor": false,
        "isMulticolor2": false,
        "colorPermutations": {
          "255165012552552551": [
            {},
            {}
          ],
          "12552552551": [
            {},
            {}
          ]
        },
        "tags": [
          "download"
        ],
        "grid": 16
      },
      "attrs": [
        {},
        {}
      ],
      "properties": {
        "order": 770,
        "id": 19,
        "name": "download",
        "prevSize": 32,
        "code": 59673
      },
      "setIdx": 0,
      "setId": 1,
      "iconIdx": 20
    },
    {
      "icon": {
        "paths": [
          "M186 767.6h-16.8c-9.6 0-17.4 7.8-17.4 17.4s7.8 17.4 17.4 17.4h16.8c9.6 0 17.4-7.8 17.4-17.4s-7.8-17.4-17.4-17.4z",
          "M185.4 848h-16.2c-9.6 0-17.4 7.2-17.4 16.8s7.8 17.4 17.4 17.4h16.2c10.2 0 18-7.8 18-17.4s-7.8-16.8-18-16.8z",
          "M1116 510.2c0-46.2-38.4-84-85.2-84-18 0-139.2 0-155.4 0h-124.8c-15.6 0-30.6-6.6-40.8-18-10.2-12-14.4-27.6-12-42.6 12-78 28.2-184.2 33.6-249 2.4-30-3.6-52.8-17.4-67.2-10.2-11.4-25.2-17.4-43.8-17.4-33 0-63.6 19.8-77.4 51l-17.4 38.4c-46.2 103.2-111 195.6-192 275.4l-54 52.8v-2.4c0-9.6-7.8-17.4-17.4-17.4h-74.4c-10.2 0-18 7.8-18 17.4s7.8 17.4 18 17.4h57v492.6h-223.2v-492.6h46.2c9.6 0 17.4-7.8 17.4-17.4s-7.8-17.4-17.4-17.4h-64.2c-9.6 0-17.4 7.8-17.4 17.4v527.4c0 9.6 7.8 17.4 17.4 17.4h258.6c9.6 0 17.4-7.8 17.4-17.4v-33c91.8 33.6 187.2 50.4 285 50.4h339.6c46.8 0 84.6-37.8 84.6-84 0-21.6-8.4-42-22.8-57 28.8-13.2 48.6-42 48.6-75.6 0-22.2-8.4-42-22.8-57 28.8-13.2 48.6-42.6 48.6-75.6 0-22.2-8.4-42-22.8-57 28.8-13.8 48.6-42.6 48.6-75.6zM729.6 957.2h-115.2c-97.8 0-193.8-17.4-285-52.8v-405.6l78.6-77.4c84-82.8 151.2-178.8 199.8-286.2l16.8-38.4c8.4-18.6 26.4-30 45.6-30 12.6 0 16.8 4.2 18 6 4.8 4.8 9.6 16.2 7.8 41.4-4.8 63-21 168.6-33 246-4.2 25.2 3 51 19.8 70.2s41.4 30.6 67.8 30.6h55.8c-10.2 13.8-16.2 30.6-16.2 49.2 0 22.2 9 42 22.8 57-28.2 13.2-48.6 42-48.6 75.6 0 22.2 9 42 23.4 57-28.8 13.8-48.6 42.6-48.6 75.6 0 22.2 8.4 42 22.8 57-28.8 13.8-48.6 42.6-48.6 75.6 0 18.6 6 35.4 16.2 49.2zM954 957.2h-156c-27 0-49.8-22.2-49.8-49.2s22.8-48.6 49.8-48.6h156c27.6 0 49.8 21.6 49.8 48.6s-22.2 49.2-49.8 49.2zM979.8 824.6h-156c-27.6 0-49.8-22.2-49.8-49.2s22.2-49.2 49.8-49.2h156c27 0 49.8 22.2 49.8 49.2s-22.8 49.2-49.8 49.2zM1005 692h-155.4c-27.6 0-49.8-22.2-49.8-49.2s22.2-49.2 49.8-49.2h155.4c27.6 0 49.8 22.2 49.8 49.2s-22.2 49.2-49.8 49.2zM1030.8 558.8h-155.4c-27.6 0-49.8-21.6-49.8-48.6s22.2-49.2 49.8-49.2c16.8 0 141 0 155.4 0 27.6 0 49.8 22.2 49.8 49.2s-22.2 48.6-49.8 48.6z"
        ],
        "width": 1152,
        "attrs": [
          {},
          {},
          {}
        ],
        "isMulticolor": false,
        "isMulticolor2": false,
        "colorPermutations": {
          "255165012552552551": [
            {},
            {},
            {}
          ],
          "12552552551": [
            {},
            {},
            {}
          ]
        },
        "tags": [
          "like"
        ],
        "grid": 16
      },
      "attrs": [
        {},
        {},
        {}
      ],
      "properties": {
        "order": 771,
        "id": 20,
        "name": "like",
        "prevSize": 32,
        "code": 59674
      },
      "setIdx": 0,
      "setId": 1,
      "iconIdx": 21
    },
    {
      "icon": {
        "paths": [
          "M957.743 575.996h-891.487v-127.992h891.487v127.992z"
        ],
        "attrs": [
          {}
        ],
        "isMulticolor": false,
        "isMulticolor2": false,
        "colorPermutations": {
          "255165012552552551": [
            {}
          ],
          "12552552551": [
            {}
          ]
        },
        "tags": [
          "minus"
        ],
        "grid": 16
      },
      "attrs": [
        {}
      ],
      "properties": {
        "order": 772,
        "id": 21,
        "name": "minus",
        "prevSize": 32,
        "code": 59669
      },
      "setIdx": 0,
      "setId": 1,
      "iconIdx": 22
    },
    {
      "icon": {
        "paths": [
          "M992 568.228h-425.828v423.772h-108.343v-423.772h-425.828v-109.028h425.828v-427.2h108.343v427.2h425.828v109.028z"
        ],
        "attrs": [
          {}
        ],
        "isMulticolor": false,
        "isMulticolor2": false,
        "colorPermutations": {
          "255165012552552551": [
            {}
          ],
          "12552552551": [
            {}
          ]
        },
        "tags": [
          "plus"
        ],
        "grid": 16
      },
      "attrs": [
        {}
      ],
      "properties": {
        "order": 773,
        "id": 22,
        "name": "plus",
        "prevSize": 32,
        "code": 59670
      },
      "setIdx": 0,
      "setId": 1,
      "iconIdx": 23
    },
    {
      "icon": {
        "paths": [
          "M1017.659 4.909c-6.546-6.546-17.183-6.546-23.728 0l-57.684 57.684c-3.682 3.682-8.591 5.728-13.91 5.728h-380.471c-5.318 0-10.228 2.046-13.91 5.728l-249.557 254.466c-3.682 3.682-5.728 8.591-5.728 13.91v81.822c0 10.637 9 19.637 19.637 19.637h46.229c11.046 0 19.637 8.591 19.637 19.228l0.409 80.594c0 10.637 9 19.637 19.637 19.637h62.594c10.637 0 19.637 8.591 19.637 19.228v80.594c0 10.637 8.591 19.637 19.228 19.637h63.412c10.637 0 19.637 8.591 19.637 19.228v46.229c0 11.046 8.591 19.637 19.637 19.637l111.687-0.409c5.318 0 10.637-2.046 14.319-5.728l240.965-249.557c3.273-3.682 5.318-8.182 5.318-13.501v-398.472c0-4.909 2.046-9.819 5.728-13.501l57.275-57.684c6.955-6.546 6.955-17.592 0-24.137zM914.973 498.704l-221.328 228.692c-3.682 4.091-8.591 6.137-13.91 6.137l-63.412 0.409c-10.637 0-19.637-9-19.637-19.637v-46.229c0-10.637-8.591-19.637-19.637-19.637h-63.003c-11.046 0-19.637-8.591-19.637-19.637v-80.185c0-11.046-8.591-19.637-19.637-19.637h-62.594c-10.637 0-19.637-8.591-19.637-19.228l-0.409-80.594c0-11.046-8.591-19.637-19.637-19.637h-46.229c-10.637 0-19.228-8.591-19.228-19.637v-33.547c0-5.318 2.046-10.228 5.318-13.91l229.919-234.010c3.682-4.091 8.591-6.137 13.91-6.137h293.331c17.183 0 25.774 21.274 13.501 33.547l-38.865 38.865c-5.728 5.728-14.319 6.955-21.683 3.682-16.773-7.364-36.002-9.819-56.048-5.318-31.911 7.773-57.275 34.774-63.003 67.094-10.637 58.912 39.684 109.232 97.777 99.823 33.138-5.318 60.957-30.683 68.73-63.412 4.909-20.046 2.455-39.274-5.318-55.639-3.273-7.773-2.046-16.364 3.682-22.092l39.274-38.865c12.273-12.273 33.138-3.682 33.138 13.501v311.332c0 5.318-2.046 10.228-5.728 13.91zM755.011 267.966c3.682 3.273 7.773 4.909 12.273 4.909 4.091 0 8.591-1.636 11.864-4.909l33.956-33.956c3.273 6.955 5.318 14.319 5.318 22.092 0 33.547-32.32 59.321-67.503 48.684-15.137-4.909-27.819-17.183-32.32-32.729-11.046-34.774 15.137-67.094 48.684-67.094 7.773 0 15.137 1.636 21.683 4.909l-33.956 33.956c-6.546 6.546-6.546 17.592 0 24.137z",
          "M477.226 816.991v-45.82c0-11.046-9-20.455-20.046-20.455h-61.775c-11.046 0-20.455-9-20.455-20.046v-78.958c0-11.046-9-20.455-20.046-20.455h-61.775c-11.046 0-20.455-9-20.455-20.046v-79.367c0-11.455-9-20.455-20.046-20.455h-61.775c-11.046 0-20.455-9-20.455-20.046v-22.092c0-18.41-21.683-27.41-34.365-14.319l-118.233 119.869c-23.728 23.319-23.728 61.366 0 85.504l363.289 346.106c11.455 11.455 27.001 17.592 42.138 17.592 15.546 0 31.092-6.137 42.956-18.001l132.551-134.188c12.682-12.682 3.682-34.365-14.319-34.365h-86.731c-11.046 0-20.455-9-20.455-20.455zM441.633 982.271c-9.819 10.228-26.592 10.228-36.82-0.409l-363.289-346.106c-9.819-10.228-9.819-27.001 0.409-37.229l94.504-95.732v22.501c0 11.046 9 20.455 20.455 20.455h61.775c11.046 0 20.046 9 20.046 20.046v79.367c0 11.455 9 20.455 20.455 20.455h61.775c11.046 0 20.046 9 20.046 20.046v78.958c0 11.455 9 20.455 20.455 20.455h61.775c11.046 0 20.046 9 20.046 20.046v45.82c0 11.455 9 20.455 20.455 20.455h38.865c18.001 0 27.001 21.683 14.728 34.365l-75.685 76.503z"
        ],
        "width": 1023,
        "attrs": [
          {},
          {}
        ],
        "isMulticolor": false,
        "isMulticolor2": false,
        "colorPermutations": {
          "255165012552552551": [
            {},
            {}
          ],
          "12552552551": [
            {},
            {}
          ]
        },
        "tags": [
          "sale"
        ],
        "grid": 16
      },
      "attrs": [
        {},
        {}
      ],
      "properties": {
        "order": 774,
        "id": 23,
        "name": "sale",
        "prevSize": 32,
        "code": 59668
      },
      "setIdx": 0,
      "setId": 1,
      "iconIdx": 24
    },
    {
      "icon": {
        "paths": [
          "M101.228 120.617c5.036 0 10.072-2.048 13.598-5.657 3.525-3.559 5.54-8.528 5.54-13.598 0-5.053-2.014-10.022-5.54-13.598-3.525-3.593-8.562-5.641-13.598-5.641s-10.072 2.048-13.598 5.641c-3.525 3.576-5.708 8.545-5.708 13.598 0 5.070 2.182 10.039 5.708 13.598 3.525 3.609 8.562 5.657 13.598 5.657z",
          "M162.67 120.617c5.036 0 10.072-2.048 13.598-5.657 3.693-3.559 5.708-8.528 5.708-13.598 0-5.053-2.014-10.022-5.708-13.598-3.525-3.593-8.562-5.641-13.598-5.641s-9.905 2.048-13.598 5.641c-3.525 3.576-5.54 8.545-5.54 13.598 0 5.070 2.014 10.039 5.54 13.598 3.693 3.609 8.562 5.657 13.598 5.657z",
          "M224.28 120.617c5.036 0 9.905-2.048 13.598-5.657 3.525-3.559 5.54-8.528 5.54-13.598 0-5.053-2.014-10.022-5.54-13.598-3.693-3.593-8.562-5.641-13.598-5.641s-10.072 2.048-13.598 5.641c-3.693 3.576-5.708 8.545-5.708 13.598 0 5.070 2.014 10.039 5.708 13.598 3.525 3.609 8.562 5.657 13.598 5.657z",
          "M962.256 574.868c-23.335 0-42.304-18.987-42.304-42.338v-61.593c0-44.571-36.261-80.848-80.748-80.848h-20.481c-10.576 0-19.306 8.629-19.306 19.255s8.729 19.238 19.306 19.238h20.481c23.335 0 42.304 19.003 42.304 42.355v61.593c0 24.644 11.080 46.753 28.539 61.593-17.459 14.84-28.539 36.949-28.539 61.593v61.593c0 23.351-18.97 42.355-42.304 42.355h-20.481c-10.576 0-19.306 8.612-19.306 19.238 0 10.643 8.729 19.255 19.306 19.255h20.481c44.487 0 80.748-36.261 80.748-80.848v-61.593c0-23.351 18.97-42.355 42.304-42.355 10.576 0 19.138-8.612 19.138-19.238s-8.562-19.255-19.138-19.255z",
          "M427.912 532.53v-61.593c0-23.351 18.97-42.355 42.304-42.355h20.481c10.576 0 19.306-8.612 19.306-19.238s-8.729-19.255-19.306-19.255h-20.481c-44.487 0-80.748 36.278-80.748 80.848v61.593c0 23.351-18.97 42.338-42.304 42.338-10.576 0-19.138 8.629-19.138 19.255s8.562 19.238 19.138 19.238c23.335 0 42.304 19.003 42.304 42.355v61.593c0 44.587 36.261 80.848 80.748 80.848h20.481c10.576 0 19.306-8.612 19.306-19.255 0-10.626-8.729-19.238-19.306-19.238h-20.481c-23.335 0-42.304-19.003-42.304-42.355v-61.593c0-24.644-11.080-46.753-28.539-61.593 17.459-14.84 28.539-36.949 28.539-61.593z",
          "M757.281 677.54c-5.204 0-10.072 2.048-13.598 5.641-3.693 3.559-5.708 8.545-5.708 13.598s2.014 10.039 5.708 13.598c3.525 3.593 8.394 5.657 13.598 5.657 5.036 0 9.905-2.065 13.43-5.657 3.693-3.559 5.708-8.545 5.708-13.598s-2.014-10.039-5.708-13.598c-3.525-3.593-8.394-5.641-13.43-5.641z",
          "M654.71 677.54c-5.036 0-10.072 2.048-13.598 5.641-3.525 3.559-5.54 8.545-5.54 13.598 0 5.087 2.014 10.039 5.54 13.598 3.525 3.593 8.562 5.657 13.598 5.657s10.072-2.065 13.598-5.657c3.525-3.559 5.54-8.545 5.54-13.598s-2.014-10.039-5.54-13.598c-3.525-3.593-8.562-5.641-13.598-5.641z",
          "M552.139 677.54c-5.036 0-9.905 2.048-13.43 5.641-3.693 3.559-5.708 8.545-5.708 13.598s2.014 10.039 5.708 13.598c3.525 3.593 8.394 5.657 13.43 5.657s10.072-2.065 13.598-5.657c3.693-3.559 5.708-8.545 5.708-13.598s-2.014-10.039-5.708-13.598c-3.525-3.593-8.562-5.641-13.598-5.641z",
          "M306.203 120.617h778.937c10.744 0 19.306-8.612 19.306-19.255 0-10.626-8.562-19.238-19.306-19.238h-778.937c-10.576 0-19.138 8.612-19.138 19.238 0 10.643 8.562 19.255 19.138 19.255z",
          "M1167.231 120.617h40.961c10.576 0 19.306-8.612 19.306-19.255 0-10.626-8.729-19.238-19.306-19.238h-40.961c-10.576 0-19.306 8.612-19.306 19.238 0 10.643 8.729 19.255 19.306 19.255z",
          "M1208.192-0.001h-1106.964c-55.902 0-101.228 45.477-101.228 101.363v821.258c0 55.902 45.326 101.379 101.228 101.379h1106.964c55.902 0 101.228-45.477 101.228-101.379v-821.258c0-55.885-45.326-101.363-101.228-101.363zM101.228 38.493h1106.964c34.582 0 62.785 28.203 62.785 62.869v62.886h-1232.534v-62.886c0-34.666 28.203-62.869 62.785-62.869zM1208.192 985.506h-1106.964c-34.582 0-62.785-28.203-62.785-62.886v-719.879h1232.534v719.879c0 34.683-28.203 62.886-62.785 62.886z"
        ],
        "width": 1309,
        "attrs": [
          {},
          {},
          {},
          {},
          {},
          {},
          {},
          {},
          {},
          {},
          {}
        ],
        "isMulticolor": false,
        "isMulticolor2": false,
        "colorPermutations": {
          "255165012552552551": [
            {},
            {},
            {},
            {},
            {},
            {},
            {},
            {},
            {},
            {},
            {}
          ],
          "12552552551": [
            {},
            {},
            {},
            {},
            {},
            {},
            {},
            {},
            {},
            {},
            {}
          ]
        },
        "tags": [
          "code"
        ],
        "grid": 16
      },
      "attrs": [
        {},
        {},
        {},
        {},
        {},
        {},
        {},
        {},
        {},
        {},
        {}
      ],
      "properties": {
        "order": 775,
        "id": 24,
        "name": "code",
        "prevSize": 32,
        "code": 59667
      },
      "setIdx": 0,
      "setId": 1,
      "iconIdx": 25
    },
    {
      "icon": {
        "paths": [
          "M842.103 539.965c-7.889 0-14.274 6.376-14.274 14.243 0 9.986-8.129 18.104-18.126 18.104s-18.126-8.118-18.126-18.104c0-7.868-6.386-14.243-14.274-14.243s-14.274 6.376-14.274 14.243c0 25.711 20.943 46.623 46.674 46.623s46.674-20.911 46.674-46.623c0-7.868-6.397-14.243-14.274-14.243z",
          "M976.097 542.292l-40.184-12.856c-5.144-1.649-9.203-5.75-10.842-10.977-8.473-26.88-21.246-52.133-37.983-75.026-7.628-10.434-16.111-20.4-25.377-29.886 5.927-25.973 9.151-55.367 8.734-80.744-0.594-36.334-7.868-57.631-22.216-65.144-7.733-4.049-31.253-16.341-158.588 41.864-3.016 1.388-5.833 3.078-8.442 5.030-8.588-2.306-17.363-4.434-26.191-6.354-1.064-0.23-2.16-0.438-3.224-0.657 10.32-22.518 16.341-46.967 17.478-72.198 0.344-7.868-5.75-14.536-13.628-14.88-7.857-0.397-14.546 5.729-14.901 13.597-1.857 41.499-19.096 80.557-48.533 109.941-17.593 17.573-38.181 30.334-60.136 38.369-38.066-5.333-76.831-5.333-114.897 0-21.954-8.034-42.543-20.797-60.136-38.369-31.409-31.357-48.699-73.054-48.699-117.413 0-44.369 17.29-86.066 48.699-117.423 31.409-31.377 73.169-48.647 117.59-48.647 44.41 0 86.17 17.27 117.579 48.647 12.616 12.594 23.050 26.984 31.002 42.741 3.537 7.033 12.126 9.861 19.169 6.313 7.043-3.537 9.871-12.104 6.323-19.137-9.308-18.48-21.527-35.322-36.303-50.087-36.803-36.751-85.733-56.994-137.77-56.994s-100.967 20.243-137.77 56.994c-36.803 36.751-57.068 85.617-57.068 137.593 0 51.966 20.264 100.831 57.068 137.583 10.613 10.591 22.163 19.711 34.373 27.35 0.010 0 0.010 0 0.021 0-8.88 2.306-17.687 4.883-26.4 7.794-7.482 2.504-11.51 10.57-9.016 18.053 2.504 7.461 10.591 11.489 18.073 8.994 77.843-25.993 163.597-25.993 241.44 0 1.503 0.511 3.026 0.741 4.529 0.741 5.969 0 11.541-3.777 13.534-9.736 2.504-7.471-1.534-15.548-9.006-18.053-8.713-2.911-17.53-5.499-26.4-7.794 0.010 0 0.010 0 0.010 0 12.219-7.638 23.76-16.758 34.383-27.35 9.391-9.381 17.677-19.628 24.877-30.511 3.934 0.773 7.837 1.566 11.687 2.4 5.134 1.117 10.237 2.306 15.287 3.558-0.157 0.626-0.323 1.242-0.449 1.868-6.96 32.994-6.511 62.17 1.336 86.723 7.064 22.080 19.794 39.954 37.857 53.144 21.287 15.558 46.988 22.268 70.268 22.268 17.52 0 33.673-3.798 45.527-10.508 13.419-7.597 24.668-23.583 33.558-47.593 4.122 4.79 8.014 9.704 11.687 14.734 14.901 20.379 26.274 42.846 33.809 66.773 4.424 14.034 15.402 25.096 29.374 29.562l40.174 12.856c10.55 3.381 17.624 13.064 17.624 24.126v66.522c0 11.050-7.074 20.744-17.624 24.126l-64.727 20.703c-10.362 3.318-19.127 10.424-24.678 20.014-25.44 43.899-65.416 80.223-118.853 107.958-6.167 3.214-10.446 8.953-11.729 15.746l-20.744 109.638c-0.563 3.016-3.214 5.207-6.293 5.207h-67.409c-3.089 0-5.729-2.191-6.303-5.207l-11.489-60.584c-2.254-11.927-13.45-19.847-25.503-18.021-29.040 4.383-58.957 6.606-88.926 6.606-22.299 0-44.306-1.242-65.426-3.694-11.677-1.336-22.55 6.606-24.73 18.126l-10.914 57.569c-0.574 3.016-3.224 5.207-6.303 5.207h-67.409c-3.078 0-5.729-2.191-6.303-5.259l-19.973-103.544c-1.283-6.668-5.478-12.344-11.51-15.558-91.086-48.563-139.231-129.694-139.231-234.616 0-53.009 11.614-99.893 34.518-139.326 21.37-36.814 52.591-67.253 92.776-90.459 6.824-3.944 9.162-12.668 5.207-19.482-3.944-6.814-12.678-9.141-19.503-5.207-77.927 45.026-124.936 114.49-137.874 202.696-1.367-0.114-2.744-0.24-4.122-0.386 0.25-9.506-1.471-19.117-5.228-28.434-8.286-20.557-25.294-35.394-43.336-37.806-14.223-1.899-27.767 4.122-37.158 16.529-13.617 17.969-11.394 32.191-7.137 40.957 7.19 14.797 25.67 25.263 56.337 31.837-0.834 1.263-1.763 2.526-2.776 3.798-18.126 22.696-39.474 27.714-53.343 28.194-8.108 0.271-14.609 6.773-14.609 14.89v0.063c0 8.003 6.313 14.526 14.317 14.89 1.033 0.042 2.097 0.073 3.214 0.073 17.541 0 45.694-6.459 72.741-40.33 4.268-5.343 7.753-10.988 10.424-16.81 2.693 0.303 5.28 0.563 7.763 0.793 0-0.010 0-0.010 0-0.010-0.49 7.722-0.762 15.558-0.762 23.53 0 59.363 14.17 112.299 42.126 157.326 25.763 41.52 62.65 75.517 109.68 101.082l19.409 100.664c3.12 16.466 17.573 28.424 34.351 28.424h67.409c16.779 0 31.231-11.958 34.351-28.424l9.871-52.049c20.483 2.16 41.708 3.256 63.151 3.256 29.426 0 58.81-2.046 87.464-6.083l10.393 54.877c3.12 16.466 17.573 28.424 34.351 28.424h67.409c16.79 0 31.231-11.958 34.351-28.434l20.191-106.727c57.026-30.126 100.017-69.683 127.794-117.631 1.993-3.454 5.082-5.979 8.671-7.127l64.737-20.713c22.403-7.169 37.461-27.777 37.461-51.277v-66.522c0-23.499-15.057-44.118-37.461-51.277zM839.755 372.862c-5.499 46.926-20.233 87.057-35.040 95.437-16.831 9.517-55.701 11.353-84.877-9.954-29.207-21.339-38.933-59.718-28.122-110.984 1.096-5.144 4.758-9.6 9.798-11.906 71.468-32.671 112.674-43.357 127.983-43.357 2.306 0 4.028 0.24 5.176 0.689 4.591 4.894 10.623 32.713 5.082 80.077zM72.767 531.137c-1.482-3.047 2.014-8.39 4.216-11.311 3.506-4.623 6.741-5.562 9.173-5.562 0.511 0 1.002 0.031 1.44 0.094 6.563 0.877 15.757 8.087 20.63 20.181 1.148 2.849 2.64 7.566 2.984 13.44-19.753-4.080-35.113-9.976-38.442-16.842z",
          "M488.478 210.236v-51.016c17.614 1.263 24.167 9.308 30.198 9.308 7.554 0 11.071-9.548 11.071-14.327 0-12.313-24.157-17.593-41.27-18.094v-6.793c0-3.006-3.777-5.77-7.544-5.77-4.278 0-7.304 2.766-7.304 5.77v7.283c-23.906 2.526-47.813 15.089-47.813 46.748 0 32.181 25.169 41.228 47.813 49.263v59.061c-25.67-2.003-32.463-19.607-40.769-19.607-6.293 0-11.573 8.296-11.573 14.327 0 12.323 21.141 29.154 52.341 29.656v7.794c0 3.006 3.026 5.781 7.304 5.781 3.777 0 7.544-2.776 7.544-5.781v-8.546c27.183-3.777 45.798-20.859 45.798-51.777 0-34.174-23.906-45.234-45.798-53.28zM475.143 205.467c-13.346-5.030-24.157-10.31-24.157-24.626 0-13.074 10.059-19.357 24.157-21.11v45.736zM486.966 291.168v-53.030c12.334 5.28 22.153 12.313 22.153 28.143 0 14.327-8.557 22.373-22.153 24.887z"
        ],
        "width": 1046,
        "attrs": [
          {},
          {},
          {}
        ],
        "isMulticolor": false,
        "isMulticolor2": false,
        "colorPermutations": {
          "255165012552552551": [
            {},
            {},
            {}
          ],
          "12552552551": [
            {},
            {},
            {}
          ]
        },
        "tags": [
          "moneybox"
        ],
        "grid": 16
      },
      "attrs": [
        {},
        {},
        {}
      ],
      "properties": {
        "order": 776,
        "id": 25,
        "name": "moneybox",
        "prevSize": 32,
        "code": 59666
      },
      "setIdx": 0,
      "setId": 1,
      "iconIdx": 26
    },
    {
      "icon": {
        "paths": [
          "M207.413 410.58c-3.72-3.72-8.88-5.862-14.14-5.862s-10.42 2.142-14.14 5.862c-3.74 3.718-5.86 8.878-5.86 14.138 0 5.262 2.12 10.42 5.86 14.14 3.72 3.72 8.88 5.86 14.14 5.86s10.42-2.138 14.14-5.86c3.72-3.72 5.86-8.878 5.86-14.14 0-5.26-2.14-10.42-5.86-14.138z",
          "M371.033 602.854l-121.198-142.494c-7.156-8.416-19.778-9.434-28.192-2.276-8.414 7.156-9.432 19.778-2.276 28.192l121.198 142.494c3.956 4.652 9.582 7.042 15.244 7.042 4.582 0 9.186-1.564 12.948-4.766 8.414-7.156 9.432-19.778 2.276-28.192z",
          "M253.107 0h-176c-11.046 0-20 8.956-20 20v101.802c0 11.046 8.954 20 20 20h176c11.046 0 20-8.956 20-20v-101.802c0-11.044-8.954-20-20-20zM233.107 101.802h-136v-61.802h136v61.802z",
          "M840.421 329.61c-3.272-7.078-10.358-11.61-18.156-11.61h-117.132v-268.262c0-11.044-8.954-20-20-20h-176c-11.046 0-20 8.956-20 20v52.064h-156c-11.046 0-20 8.956-20 20v124.13h-156c-11.046 0-20 8.956-20 20v52.068h-117.132c-7.798 0-14.884 4.532-18.156 11.61-3.27 7.078-2.13 15.414 2.922 21.352l312.852 367.666v285.372c0 8.072 4.854 15.354 12.304 18.46 2.486 1.036 5.1 1.54 7.692 1.54 5.174 0 10.262-2.008 14.082-5.794l167.028-165.52c3.79-3.756 5.922-8.872 5.922-14.208v-119.852l98.358-115.59c7.158-8.412 6.142-21.036-2.27-28.194-8.412-7.156-21.036-6.138-28.192 2.272l-103.126 121.194c-3.078 3.618-4.768 8.21-4.768 12.96v118.872l-127.028 125.882v-244.752c0-4.75-1.69-9.344-4.768-12.96l-289.574-340.31h715.708l-83.56 98.202c-7.158 8.412-6.14 21.036 2.272 28.194 8.414 7.156 21.034 6.14 28.194-2.272l111.606-131.162c5.052-5.94 6.192-14.274 2.922-21.352zM313.133 318h-136v-32.066h136v32.066zM489.133 318h-136v-32.066h136v32.066zM489.133 193.868v52.064h-136v-104.13h136v52.066zM665.133 318h-136v-104.13h136v104.13zM665.133 173.868h-136v-104.13h136v104.13z",
          "M670.693 518.6c-3.72-3.72-8.88-5.86-14.14-5.86s-10.42 2.138-14.14 5.86c-3.72 3.72-5.86 8.88-5.86 14.14s2.14 10.42 5.86 14.138c3.72 3.74 8.88 5.862 14.14 5.862s10.42-2.122 14.14-5.862c3.72-3.718 5.86-8.878 5.86-14.138s-2.14-10.42-5.86-14.14z"
        ],
        "width": 842,
        "attrs": [
          {},
          {},
          {},
          {},
          {}
        ],
        "isMulticolor": false,
        "isMulticolor2": false,
        "colorPermutations": {
          "255165012552552551": [
            {},
            {},
            {},
            {},
            {}
          ],
          "12552552551": [
            {},
            {},
            {},
            {},
            {}
          ]
        },
        "tags": [
          "filter"
        ],
        "grid": 16
      },
      "attrs": [
        {},
        {},
        {},
        {},
        {}
      ],
      "properties": {
        "order": 777,
        "id": 26,
        "name": "filter2",
        "prevSize": 32,
        "code": 59665
      },
      "setIdx": 0,
      "setId": 1,
      "iconIdx": 27
    },
    {
      "icon": {
        "paths": [
          "M330 32c-153.6 0-276.522 120.018-292.122 286.218-1.2 7.2-6.6 45.564 9 108.564 22.2 90.6 73.74 173.376 149.34 238.776l376.782 326.442 382.878-326.442c75-65.4 127.14-148.176 149.34-238.776 15.6-63 10.2-101.364 9-108.564-15.6-166.2-138.618-286.218-292.218-286.218-102.6 0-196.2 52.782-249 136.782-52.2-85.2-142.2-136.782-243-136.782zM368.442 152.558c11.4 0 20.436 8.982 20.436 19.782s-9.036 19.878-20.436 19.878c-91.8 0-166.224 71.4-166.224 159 0 10.8-9.6 19.782-21 19.782s-21-8.982-21-19.782c0-109.8 93.624-198.66 208.224-198.66z"
        ],
        "width": 1152,
        "attrs": [
          {}
        ],
        "isMulticolor": false,
        "isMulticolor2": false,
        "colorPermutations": {
          "255165012552552551": [
            {}
          ],
          "12552552551": [
            {}
          ]
        },
        "tags": [
          "heart-glare"
        ],
        "grid": 16
      },
      "attrs": [
        {}
      ],
      "properties": {
        "order": 778,
        "id": 27,
        "name": "heart-glare",
        "prevSize": 32,
        "code": 59663
      },
      "setIdx": 0,
      "setId": 1,
      "iconIdx": 28
    },
    {
      "icon": {
        "paths": [
          "M1114.278 318.2c-15.6-166.2-138.6-286.2-292.2-286.2-102.6 0-196.2 52.8-249 136.8-52.2-85.2-142.2-136.8-243-136.8-153.6 0-276.6 120-292.2 286.2-1.2 7.2-6.6 45.6 9 108.6 22.2 90.6 73.8 173.4 149.4 238.8l376.8 326.4 382.8-326.4c75-65.4 127.2-148.2 149.4-238.8 15.6-63 10.2-101.4 9-108.6zM1065.078 417.8c-21 82.8-68.4 158.4-137.4 218.4l-354.6 302.4-348.6-302.4c-69.6-60-117-135.6-137.4-218.4-14.4-59.4-8.4-93-8.4-93.6v-1.8c13.8-145.2 119.4-250.8 251.4-250.8 97.2 0 183 57 223.8 149.4l19.2 43.2 19.2-43.2c39.6-90.6 130.2-149.4 229.8-149.4 132 0 237.6 105.6 251.4 252.6 0 0.6 6 34.2-8.4 93.6z",
          "M368.478 152.6c-114.6 0-208.2 88.8-208.2 198.6 0 10.8 9.6 19.8 21 19.8s21-9 21-19.8c0-87.6 74.4-159 166.2-159 11.4 0 20.4-9 20.4-19.8s-9-19.8-20.4-19.8z"
        ],
        "width": 1152,
        "attrs": [
          {},
          {}
        ],
        "isMulticolor": false,
        "isMulticolor2": false,
        "colorPermutations": {
          "255165012552552551": [
            {},
            {}
          ],
          "12552552551": [
            {},
            {}
          ]
        },
        "tags": [
          "heart-glare-o"
        ],
        "grid": 16
      },
      "attrs": [
        {},
        {}
      ],
      "properties": {
        "order": 779,
        "id": 28,
        "name": "heart-glare-o",
        "prevSize": 32,
        "code": 59664
      },
      "setIdx": 0,
      "setId": 1,
      "iconIdx": 29
    },
    {
      "icon": {
        "paths": [
          "M598.252 832.401c0 11.534-9.356 21.146-21.403 21.146h-128.16c-12.047 0-21.403-9.612-21.403-21.146v-128.16c0-12.175 9.356-21.787 21.403-21.787h128.16c12.047 0 21.403 9.612 21.403 21.787v128.16zM769.153 383.84c0 101.247-69.463 140.335-120.15 168.531-31.399 18.583-50.751 50.623-50.751 66.003v0c0 12.175-9.356 21.787-21.403 21.787h-128.16c-12.047 0-21.403-9.612-21.403-21.787v-23.71c0-64.721 64.785-119.83 112.204-141.617 40.755-18.583 58.761-35.885 58.761-70.488 0-29.477-39.409-56.39-82.151-56.39-24.030 0-46.074 7.69-57.416 16.020-12.688 8.971-26.017 21.146-57.416 60.876-3.973 5.767-10.701 8.33-16.661 8.33-4.678 0-9.356-1.282-12.688-3.845l-88.174-67.284c-8.651-6.408-11.342-18.583-5.319-27.554 57.416-95.479 138.862-142.258 247.734-142.258 114.832 0 242.992 91.635 242.992 213.387zM1025.538 512c0-282.593-229.663-512-512.769-512s-512.769 229.407-512.769 512c0 282.593 229.663 512 512.769 512s512.769-229.407 512.769-512z"
        ],
        "width": 1026,
        "attrs": [
          {}
        ],
        "isMulticolor": false,
        "isMulticolor2": false,
        "colorPermutations": {
          "255165012552552551": [
            {}
          ],
          "12552552551": [
            {}
          ]
        },
        "tags": [
          "question-circle"
        ],
        "grid": 16
      },
      "attrs": [
        {}
      ],
      "properties": {
        "order": 780,
        "id": 29,
        "name": "question-circle",
        "prevSize": 32,
        "code": 59662
      },
      "setIdx": 0,
      "setId": 1,
      "iconIdx": 30
    },
    {
      "icon": {
        "paths": [
          "M512.464 931.815q-13.789 0-23.335-9.546l-330.92-319.253q-5.303-4.242-14.583-13.789t-29.433-34.737-36.062-51.706-28.372-64.169-12.463-73.184q0-116.67 67.35-182.43t186.142-65.759q32.881 0 67.086 11.402t63.638 30.758 50.645 36.327 40.304 36.062q19.091-19.091 40.304-36.062t50.645-36.327 63.638-30.758 67.086-11.402q118.792 0 186.142 65.759t67.35 182.43q0 117.201-121.443 238.644l-330.39 318.192q-9.546 9.546-23.335 9.546z"
        ],
        "attrs": [],
        "isMulticolor": false,
        "isMulticolor2": false,
        "colorPermutations": {
          "255165012552552551": [],
          "12552552551": []
        },
        "tags": [
          "heart"
        ],
        "defaultCode": 61444,
        "grid": 16
      },
      "attrs": [],
      "properties": {
        "id": 30,
        "order": 781,
        "ligatures": "",
        "prevSize": 32,
        "code": 61444,
        "name": "heart"
      },
      "setIdx": 0,
      "setId": 1,
      "iconIdx": 31
    },
    {
      "icon": {
        "paths": [
          "M951.786 353.917q0-46.331-12.298-81.794t-31.46-56.341-46.617-34.033-53.767-17.731-56.055-4.575-64.063 14.585-63.205 36.607-49.477 41.183-34.32 35.177q-10.296 12.583-28.027 12.583t-28.027-12.583q-13.727-16.016-34.32-35.177t-49.477-41.183-63.205-36.607-64.063-14.585-56.055 4.575-53.767 17.731-46.617 34.033-31.46 56.341-12.298 81.794q0 96.094 106.961 203.055l332.325 320.313 331.753-319.741q107.534-107.534 107.534-203.628zM1025.001 353.917q0 126.409-130.985 257.394l-356.348 343.192q-10.296 10.296-25.168 10.296t-25.168-10.296l-356.92-344.336q-5.72-4.575-15.729-14.872t-31.745-37.466-38.895-55.768-30.601-69.211-13.442-78.934q0-125.837 72.642-196.763t200.767-70.926q35.464 0 72.357 12.298t68.638 33.175 54.624 39.181 43.471 38.895q20.591-20.591 43.471-38.895t54.624-39.181 68.638-33.175 72.357-12.298q128.125 0 200.767 70.926t72.642 196.763z"
        ],
        "attrs": [],
        "isMulticolor": false,
        "isMulticolor2": false,
        "colorPermutations": {
          "255165012552552551": [],
          "12552552551": []
        },
        "tags": [
          "heart-o"
        ],
        "defaultCode": 61578,
        "grid": 16
      },
      "attrs": [],
      "properties": {
        "id": 31,
        "order": 782,
        "ligatures": "",
        "prevSize": 32,
        "code": 61578,
        "name": "heart-o"
      },
      "setIdx": 0,
      "setId": 1,
      "iconIdx": 32
    },
    {
      "icon": {
        "paths": [
          "M824.889 995.555l-312.889-174.73-312.889 174.73 69.079-353.523-268.19-243.809 357.587-44.699 154.413-325.079 154.413 325.079 357.587 44.699-260.063 247.873 60.953 349.46z"
        ],
        "attrs": [],
        "isMulticolor": false,
        "isMulticolor2": false,
        "colorPermutations": {
          "255165012552552551": [],
          "12552552551": []
        },
        "tags": [
          "star"
        ],
        "grid": 16
      },
      "attrs": [],
      "properties": {
        "order": 783,
        "id": 32,
        "name": "star",
        "prevSize": 32,
        "code": 59661
      },
      "setIdx": 0,
      "setId": 1,
      "iconIdx": 33
    },
    {
      "icon": {
        "paths": [
          "M1023.721 268.102l-34.071-35.375-477.836 488.727-477.743-488.727-34.071 35.375 511.814 523.171 511.907-523.171z"
        ],
        "attrs": [
          {}
        ],
        "isMulticolor": false,
        "isMulticolor2": false,
        "colorPermutations": {
          "255165012552552551": [
            {}
          ],
          "12552552551": [
            {}
          ]
        },
        "tags": [
          "angle-down"
        ],
        "grid": 16
      },
      "attrs": [
        {}
      ],
      "properties": {
        "order": 784,
        "id": 33,
        "name": "angle-down",
        "prevSize": 32,
        "code": 59648
      },
      "setIdx": 0,
      "setId": 1,
      "iconIdx": 34
    },
    {
      "icon": {
        "paths": [
          "M755.898 1023.721l35.375-34.071-488.727-477.836 488.727-477.743-35.375-34.071-523.171 511.814 523.171 511.907z"
        ],
        "attrs": [
          {}
        ],
        "isMulticolor": false,
        "isMulticolor2": false,
        "colorPermutations": {
          "255165012552552551": [
            {}
          ],
          "12552552551": [
            {}
          ]
        },
        "tags": [
          "angle-left"
        ],
        "grid": 16
      },
      "attrs": [
        {}
      ],
      "properties": {
        "order": 785,
        "id": 34,
        "name": "angle-left",
        "prevSize": 32,
        "code": 59649
      },
      "setIdx": 0,
      "setId": 1,
      "iconIdx": 35
    },
    {
      "icon": {
        "paths": [
          "M268.102 1023.721l-35.375-34.071 488.727-477.836-488.727-477.743 35.375-34.071 523.171 511.814-523.171 511.907z"
        ],
        "attrs": [
          {}
        ],
        "isMulticolor": false,
        "isMulticolor2": false,
        "colorPermutations": {
          "255165012552552551": [
            {}
          ],
          "12552552551": [
            {}
          ]
        },
        "tags": [
          "angle-right"
        ],
        "grid": 16
      },
      "attrs": [
        {}
      ],
      "properties": {
        "order": 786,
        "id": 35,
        "name": "angle-right",
        "prevSize": 32,
        "code": 59650
      },
      "setIdx": 0,
      "setId": 1,
      "iconIdx": 36
    },
    {
      "icon": {
        "paths": [
          "M1023.721 755.898l-34.071 35.375-477.836-488.727-477.743 488.727-34.071-35.375 511.814-523.171 511.907 523.171z"
        ],
        "attrs": [
          {}
        ],
        "isMulticolor": false,
        "isMulticolor2": false,
        "colorPermutations": {
          "255165012552552551": [
            {}
          ],
          "12552552551": [
            {}
          ]
        },
        "tags": [
          "angle-up"
        ],
        "grid": 16
      },
      "attrs": [
        {}
      ],
      "properties": {
        "order": 787,
        "id": 36,
        "name": "angle-up",
        "prevSize": 32,
        "code": 59651
      },
      "setIdx": 0,
      "setId": 1,
      "iconIdx": 37
    },
    {
      "icon": {
        "paths": [
          "M946.018 332.8h-53.169c-0.394-0.394-0.788-1.182-1.182-1.575l-289.477-282.388c-12.997-12.603-33.871-12.603-46.868 0-13.391 12.603-13.391 33.477 0 46.080l243.397 237.883h-573.44l243.397-237.883c12.997-12.603 12.997-33.477 0-46.080s-33.871-12.603-47.262 0l-289.083 282.388c-0.394 0.394-0.788 1.182-1.182 1.575h-53.169c-42.929 0-77.982 33.871-77.982 76.012v43.323c0 40.172 31.508 72.862 71.68 76.012l64.197 374.548c7.877 47.655 49.625 81.92 98.855 81.92h564.382c49.625 0 92.16-36.234 99.249-83.889l54.351-372.972c39.778-3.151 71.286-35.84 71.286-75.618v-43.323c0-42.142-35.052-76.012-77.982-76.012zM957.046 452.135c0 5.908-4.726 11.028-11.028 11.028-10.24 0-319.409 0-333.982 0-18.117 0-33.083 14.572-33.083 32.295 0 18.117 14.572 32.689 33.083 32.689h273.329l-53.169 363.126c-2.363 16.148-16.542 27.963-33.083 27.963h-564.382c-16.542 0-30.326-11.422-33.083-27.175l-62.228-363.914h272.542c18.117 0 33.083-14.572 33.083-32.689 0-17.723-14.966-32.295-33.083-32.295-14.966 0-323.742 0-333.982 0-6.302 0-11.028-5.12-11.028-11.028v-43.323c0-6.302 4.726-11.028 11.028-11.028h868.037c6.302 0 11.028 4.726 11.028 11.028v43.323z",
          "M311.532 593.526c-18.511 0-33.477 14.572-33.477 32.295v195.742c0 18.117 14.966 32.689 33.477 32.689s33.477-14.572 33.477-32.689v-195.742c0-17.723-14.966-32.295-33.477-32.295z",
          "M512 593.526c-18.511 0-33.477 14.572-33.477 32.295v195.742c0 18.117 14.966 32.689 33.477 32.689s33.477-14.572 33.477-32.689v-195.742c0-17.723-14.966-32.295-33.477-32.295z",
          "M712.468 593.526c-18.511 0-33.477 14.572-33.477 32.295v195.742c0 18.117 14.966 32.689 33.477 32.689 18.117 0 33.083-14.572 33.083-32.689v-195.742c0-17.723-14.966-32.295-33.083-32.295z"
        ],
        "attrs": [
          {},
          {},
          {},
          {}
        ],
        "isMulticolor": false,
        "isMulticolor2": false,
        "colorPermutations": {
          "255165012552552551": [
            {},
            {},
            {},
            {}
          ],
          "12552552551": [
            {},
            {},
            {},
            {}
          ]
        },
        "tags": [
          "basket"
        ],
        "grid": 16
      },
      "attrs": [
        {},
        {},
        {},
        {}
      ],
      "properties": {
        "order": 788,
        "id": 37,
        "name": "basket",
        "prevSize": 32,
        "code": 59652
      },
      "setIdx": 0,
      "setId": 1,
      "iconIdx": 38
    },
    {
      "icon": {
        "paths": [
          "M56.319 256c47.309 0 877.056 0 909.722 0 42.291 0 73.728 24.576 48.947 49.152-19.763 19.456-419.635 412.672-453.837 446.464-22.528 22.528-76.083 21.504-98.611 0-25.088-24.576-427.008-418.816-454.963-447.488-20.48-20.48 2.15-48.128 48.742-48.128z"
        ],
        "attrs": [
          {}
        ],
        "isMulticolor": false,
        "isMulticolor2": false,
        "colorPermutations": {
          "255165012552552551": [
            {}
          ],
          "12552552551": [
            {}
          ]
        },
        "tags": [
          "caret-down"
        ],
        "grid": 16
      },
      "attrs": [
        {}
      ],
      "properties": {
        "order": 789,
        "id": 38,
        "name": "caret-down",
        "prevSize": 32,
        "code": 59653
      },
      "setIdx": 0,
      "setId": 1,
      "iconIdx": 39
    },
    {
      "icon": {
        "paths": [
          "M56.319 768.133c47.309 0 877.056 0 909.722 0 42.291 0 73.728-24.576 48.947-49.152-19.763-19.456-419.635-412.672-453.837-446.464-22.528-22.528-76.083-21.504-98.611 0-25.088 24.576-427.008 418.816-454.963 447.488-20.48 20.48 2.15 48.128 48.742 48.128z"
        ],
        "attrs": [
          {}
        ],
        "isMulticolor": false,
        "isMulticolor2": false,
        "colorPermutations": {
          "255165012552552551": [
            {}
          ],
          "12552552551": [
            {}
          ]
        },
        "tags": [
          "caret-up"
        ],
        "grid": 16
      },
      "attrs": [
        {}
      ],
      "properties": {
        "order": 790,
        "id": 39,
        "name": "caret-up",
        "prevSize": 32,
        "code": 59654
      },
      "setIdx": 0,
      "setId": 1,
      "iconIdx": 40
    },
    {
      "icon": {
        "paths": [
          "M924.809 184.771c-18.796-19.366-49.555-19.366-68.351 0l-547.375 551.362-141.828-142.967c-18.796-18.796-49.555-18.796-68.351 0s-18.796 50.125 0 68.921l176.004 177.712c9.683 9.683 21.644 14.241 34.176 14.241 3.417 0 6.266 0 9.114-0.57 9.114-2.278 18.226-6.266 25.062-13.67 0 0 0 0 0 0l581.551-586.108c18.796-18.796 18.796-50.125 0-68.921z"
        ],
        "attrs": [
          {}
        ],
        "isMulticolor": false,
        "isMulticolor2": false,
        "colorPermutations": {
          "255165012552552551": [
            {}
          ],
          "12552552551": [
            {}
          ]
        },
        "tags": [
          "check"
        ],
        "grid": 16
      },
      "attrs": [
        {}
      ],
      "properties": {
        "order": 791,
        "id": 40,
        "name": "check",
        "prevSize": 32,
        "code": 59655
      },
      "setIdx": 0,
      "setId": 1,
      "iconIdx": 41
    },
    {
      "icon": {
        "paths": [
          "M672 512c0 88.367-71.633 160-160 160s-160-71.633-160-160c0-88.368 71.632-160 160-160s160 71.632 160 160z"
        ],
        "attrs": [
          {}
        ],
        "isMulticolor": false,
        "isMulticolor2": false,
        "colorPermutations": {
          "255165012552552551": [
            {}
          ],
          "12552552551": [
            {}
          ]
        },
        "tags": [
          "circle"
        ],
        "grid": 16
      },
      "attrs": [
        {}
      ],
      "properties": {
        "order": 792,
        "id": 41,
        "name": "circle",
        "prevSize": 32,
        "code": 59656
      },
      "setIdx": 0,
      "setId": 1,
      "iconIdx": 42
    },
    {
      "icon": {
        "paths": [
          "M598.976 512.098l406.754-407.32c24.062-23.59 24.062-62.907 0-86.496-24.054-24.376-63.040-24.376-87.078 0l-406.777 406.533-406.754-406.533c-24.030-24.376-63.040-24.376-87.094 0-24.038 23.59-24.038 62.907 0.016 86.496l406.754 407.32-406.754 406.533c-24.054 24.376-24.054 62.907-0.016 87.283 12.023 11.795 27.781 18.086 43.555 18.086 15.758 0 31.516-6.291 43.539-18.086l406.754-406.533 406.777 406.533c12.007 11.795 27.781 18.086 43.539 18.086s31.516-6.291 43.539-18.086c24.062-24.376 24.062-62.907 0-87.283l-406.754-406.533z"
        ],
        "attrs": [
          {}
        ],
        "isMulticolor": false,
        "isMulticolor2": false,
        "colorPermutations": {
          "255165012552552551": [
            {}
          ],
          "12552552551": [
            {}
          ]
        },
        "tags": [
          "close"
        ],
        "grid": 16
      },
      "attrs": [
        {}
      ],
      "properties": {
        "order": 793,
        "id": 42,
        "name": "close",
        "prevSize": 32,
        "code": 59657
      },
      "setIdx": 0,
      "setId": 1,
      "iconIdx": 43
    },
    {
      "icon": {
        "paths": [
          "M899.072 119.465h-773.803c-69.291 0-125.269 56.559-125.269 126.157v532.753c0 69.598 55.979 126.157 125.269 126.157h773.461c68.949 0 125.269-56.559 125.269-126.157v-532.548c0.341-69.598-55.979-126.362-124.928-126.362zM966.997 778.375c0 37.786-30.379 68.54-67.925 68.54h-773.803c-37.547 0-67.925-30.754-67.925-68.54v-532.548c0-37.786 30.379-68.54 67.925-68.54h773.461c37.547 0 67.925 30.754 67.925 68.54v532.548h0.341z",
          "M645.803 505.376l250.539-226.27c11.605-10.684 12.629-28.809 2.048-40.755-10.581-11.742-28.672-12.8-40.619-2.15l-345.088 312.286-67.584-60.621c-0.341-0.205-0.341-0.41-0.341-0.649-1.365-1.468-3.072-2.765-4.779-4.028l-274.091-247.194c-11.947-10.65-30.037-9.591-40.619 2.355s-9.216 30.071 2.389 40.755l253.611 228.181-252.587 238.012c-11.264 10.854-11.947 29.013-1.024 40.755 5.461 5.973 13.312 9.182 20.821 9.182 7.168 0 13.995-2.56 19.456-7.68l256.341-241.391 69.291 62.532c5.461 4.881 12.288 7.236 19.115 7.236s13.653-2.56 19.115-7.475l71.339-64.444 254.635 243.746c5.461 5.359 12.971 7.885 19.797 7.885 7.509 0 15.019-2.97 20.821-8.943 10.923-11.537 10.24-29.867-1.024-40.789l-251.563-240.538z"
        ],
        "attrs": [
          {},
          {}
        ],
        "isMulticolor": false,
        "isMulticolor2": false,
        "colorPermutations": {
          "255165012552552551": [
            {},
            {}
          ],
          "12552552551": [
            {},
            {}
          ]
        },
        "tags": [
          "envelope"
        ],
        "grid": 16
      },
      "attrs": [
        {},
        {}
      ],
      "properties": {
        "order": 794,
        "id": 43,
        "name": "envelope",
        "prevSize": 32,
        "code": 59658
      },
      "setIdx": 0,
      "setId": 1,
      "iconIdx": 44
    },
    {
      "icon": {
        "paths": [
          "M423.253 17.067c-232.789 0-423.253 181.589-423.253 403.115 0 221.867 190.464 403.456 423.253 403.456s423.253-181.589 423.253-403.456c0-221.525-190.464-403.115-423.253-403.115zM423.253 750.251c-190.464 0-346.112-148.48-346.112-330.069 0-181.248 155.648-329.728 346.112-329.728s346.453 148.48 346.453 329.728c0 181.589-155.989 330.069-346.453 330.069zM1027.413 996.011c7.509-7.509 11.605-16.725 11.605-25.941 0-8.875-4.096-18.091-11.605-25.6l-274.432-263.168-53.589 51.541 276.139 263.168c5.803 7.168 15.36 10.923 24.917 10.923s19.115-3.755 26.965-10.923z"
        ],
        "attrs": [
          {}
        ],
        "isMulticolor": false,
        "isMulticolor2": false,
        "colorPermutations": {
          "255165012552552551": [
            {}
          ],
          "12552552551": [
            {}
          ]
        },
        "tags": [
          "search"
        ],
        "grid": 16
      },
      "attrs": [
        {}
      ],
      "properties": {
        "order": 795,
        "id": 44,
        "name": "search",
        "prevSize": 32,
        "code": 59659
      },
      "setIdx": 0,
      "setId": 1,
      "iconIdx": 45
    },
    {
      "icon": {
        "paths": [
          "M824.888 995.554l-312.889-174.73-312.889 174.73 69.079-353.523-268.19-243.809 357.587-44.699 154.413-325.079 154.413 325.079 357.587 44.699-260.063 247.873 60.953 349.46zM166.602 451.047l174.73 166.603-44.699 235.682 211.301-117.841 211.301 117.841-44.699-235.682 174.73-166.603-239.746-28.445-101.587-219.428-101.587 219.428-239.746 28.445z"
        ],
        "attrs": [],
        "isMulticolor": false,
        "isMulticolor2": false,
        "colorPermutations": {
          "255165012552552551": [],
          "12552552551": []
        },
        "tags": [
          "star-o"
        ],
        "grid": 16
      },
      "attrs": [],
      "properties": {
        "order": 796,
        "id": 45,
        "name": "star-o",
        "prevSize": 32,
        "code": 59660
      },
      "setIdx": 0,
      "setId": 1,
      "iconIdx": 46
    }
  ],
  "height": 1024,
  "metadata": {
    "name": "IconsUchmag"
  },
  "preferences": {
    "showGlyphs": true,
    "showCodes": true,
    "showQuickUse": true,
    "showQuickUse2": true,
    "showSVGs": true,
    "fontPref": {
      "prefix": "fum-",
      "metadata": {
        "fontFamily": "IconsUchmag",
        "majorVersion": 1,
        "minorVersion": 0
      },
      "metrics": {
        "emSize": 1024,
        "baseline": 14.271749755620725,
        "whitespace": 25.024437927663733
      },
      "embed": false,
      "showSelector": false,
      "showMetrics": false,
      "showMetadata": true,
      "showVersion": true,
      "noie8": true,
      "ie7": false,
      "cssVars": true,
      "cssVarsFormat": "scss"
    },
    "imagePref": {
      "prefix": "icon-",
      "png": true,
      "useClassSelector": true,
      "color": 0,
      "bgColor": 16777215
    },
    "historySize": 50,
    "gridSize": 16,
    "showGrid": true
  }
}